NAME : ../ob2/ob2-Lpr-c-05.txt
NODES : 369
REQ_EDGES : 365
NOREQ_EDGES : 0
REQ_ARCS : 372
NOREQ_ARCS : 432
CAPACITY : 10000
DUMPING_COST : 300
LIST_REQ_EDGES :
(1,197) serv_cost 396 trav_cost 21 demand 375
(2,22) serv_cost 513 trav_cost 22 demand 491
(3,42) serv_cost 240 trav_cost 43 demand 197
(4,5) serv_cost 440 trav_cost 22 demand 418
(5,24) serv_cost 697 trav_cost 23 demand 674
(5,6) serv_cost 485 trav_cost 16 demand 469
(6,7) serv_cost 98 trav_cost 39 demand 59
(8,9) serv_cost 237 trav_cost 18 demand 219
(8,27) serv_cost 48 trav_cost 20 demand 28
(9,27) serv_cost 442 trav_cost 31 demand 411
(9,28) serv_cost 139 trav_cost 18 demand 121
(10,11) serv_cost 149 trav_cost 14 demand 135
(12,32) serv_cost 511 trav_cost 17 demand 494
(12,31) serv_cost 446 trav_cost 27 demand 419
(13,14) serv_cost 460 trav_cost 21 demand 439
(14,34) serv_cost 308 trav_cost 15 demand 293
(15,56) serv_cost 243 trav_cost 35 demand 208
(16,17) serv_cost 156 trav_cost 20 demand 136
(17,18) serv_cost 143 trav_cost 19 demand 124
(17,36) serv_cost 155 trav_cost 21 demand 134
(18,19) serv_cost 238 trav_cost 35 demand 203
(20,39) serv_cost 173 trav_cost 23 demand 150
(21,40) serv_cost 274 trav_cost 15 demand 259
(22,41) serv_cost 398 trav_cost 19 demand 379
(23,24) serv_cost 683 trav_cost 27 demand 656
(24,25) serv_cost 118 trav_cost 16 demand 102
(24,44) serv_cost 439 trav_cost 17 demand 422
(27,47) serv_cost 545 trav_cost 24 demand 521
(27,28) serv_cost 260 trav_cost 22 demand 238
(29,49) serv_cost 627 trav_cost 20 demand 607
(30,51) serv_cost 606 trav_cost 21 demand 585
(30,31) serv_cost 193 trav_cost 17 demand 176
(31,32) serv_cost 220 trav_cost 18 demand 202
(32,33) serv_cost 337 trav_cost 21 demand 316
(33,54) serv_cost 415 trav_cost 18 demand 397
(35,57) serv_cost 398 trav_cost 16 demand 382
(35,36) serv_cost 91 trav_cost 16 demand 75
(36,58) serv_cost 309 trav_cost 18 demand 291
(36,37) serv_cost 405 trav_cost 19 demand 386
(37,59) serv_cost 433 trav_cost 25 demand 408
(37,38) serv_cost 549 trav_cost 38 demand 511
(40,79) serv_cost 451 trav_cost 39 demand 412
(41,42) serv_cost 194 trav_cost 25 demand 169
(41,63) serv_cost 515 trav_cost 20 demand 495
(42,64) serv_cost 347 trav_cost 16 demand 331
(44,66) serv_cost 400 trav_cost 22 demand 378
(45,67) serv_cost 519 trav_cost 22 demand 497
(45,46) serv_cost 89 trav_cost 21 demand 68
(46,47) serv_cost 663 trav_cost 16 demand 647
(48,49) serv_cost 714 trav_cost 20 demand 694
(49,50) serv_cost 462 trav_cost 19 demand 443
(50,90) serv_cost 430 trav_cost 33 demand 397
(51,52) serv_cost 648 trav_cost 19 demand 629
(52,72) serv_cost 374 trav_cost 17 demand 357
(54,74) serv_cost 551 trav_cost 19 demand 532
(54,55) serv_cost 394 trav_cost 20 demand 374
(55,75) serv_cost 467 trav_cost 19 demand 448
(56,57) serv_cost 776 trav_cost 19 demand 757
(56,76) serv_cost 642 trav_cost 18 demand 624
(57,58) serv_cost 505 trav_cost 12 demand 493
(57,76) serv_cost 411 trav_cost 25 demand 386
(57,77) serv_cost 485 trav_cost 17 demand 468
(59,60) serv_cost 289 trav_cost 19 demand 270
(61,62) serv_cost 297 trav_cost 35 demand 262
(61,101) serv_cost 240 trav_cost 37 demand 203
(63,81) serv_cost 463 trav_cost 15 demand 448
(64,65) serv_cost 627 trav_cost 23 demand 604
(64,82) serv_cost 374 trav_cost 22 demand 352
(65,83) serv_cost 186 trav_cost 15 demand 171
(65,66) serv_cost 134 trav_cost 18 demand 116
(66,84) serv_cost 309 trav_cost 17 demand 292
(68,87) serv_cost 520 trav_cost 26 demand 494
(69,88) serv_cost 327 trav_cost 17 demand 310
(71,91) serv_cost 304 trav_cost 23 demand 281
(72,92) serv_cost 121 trav_cost 21 demand 100
(72,73) serv_cost 324 trav_cost 16 demand 308
(74,94) serv_cost 316 trav_cost 19 demand 297
(76,77) serv_cost 140 trav_cost 18 demand 122
(76,95) serv_cost 712 trav_cost 33 demand 679
(79,118) serv_cost 126 trav_cost 41 demand 85
(80,81) serv_cost 534 trav_cost 21 demand 513
(80,119) serv_cost 723 trav_cost 39 demand 684
(81,104) serv_cost 306 trav_cost 19 demand 287
(81,82) serv_cost 503 trav_cost 19 demand 484
(82,83) serv_cost 675 trav_cost 19 demand 656
(82,105) serv_cost 319 trav_cost 16 demand 303
(83,84) serv_cost 141 trav_cost 18 demand 123
(83,106) serv_cost 452 trav_cost 22 demand 430
(84,107) serv_cost 591 trav_cost 22 demand 569
(84,85) serv_cost 453 trav_cost 24 demand 429
(85,108) serv_cost 321 trav_cost 18 demand 303
(86,87) serv_cost 578 trav_cost 19 demand 559
(87,126) serv_cost 621 trav_cost 33 demand 588
(90,91) serv_cost 472 trav_cost 18 demand 454
(91,110) serv_cost 439 trav_cost 16 demand 423
(92,93) serv_cost 388 trav_cost 19 demand 369
(93,129) serv_cost 449 trav_cost 44 demand 405
(94,95) serv_cost 297 trav_cost 14 demand 283
(95,96) serv_cost 481 trav_cost 25 demand 456
(95,111) serv_cost 87 trav_cost 21 demand 66
(96,97) serv_cost 768 trav_cost 13 demand 755
(97,113) serv_cost 396 trav_cost 27 demand 369
(98,99) serv_cost 592 trav_cost 24 demand 568
(101,115) serv_cost 452 trav_cost 21 demand 431
(101,102) serv_cost 361 trav_cost 18 demand 343
(102,116) serv_cost 89 trav_cost 21 demand 68
(103,117) serv_cost 619 trav_cost 16 demand 603
(105,121) serv_cost 177 trav_cost 23 demand 154
(105,106) serv_cost 610 trav_cost 19 demand 591
(106,122) serv_cost 612 trav_cost 15 demand 597
(108,124) serv_cost 365 trav_cost 24 demand 341
(111,112) serv_cost 244 trav_cost 46 demand 198
(111,130) serv_cost 315 trav_cost 14 demand 301
(112,113) serv_cost 61 trav_cost 14 demand 47
(115,116) serv_cost 496 trav_cost 21 demand 475
(115,135) serv_cost 238 trav_cost 14 demand 224
(116,136) serv_cost 311 trav_cost 19 demand 292
(116,117) serv_cost 193 trav_cost 17 demand 176
(117,137) serv_cost 182 trav_cost 25 demand 157
(119,139) serv_cost 123 trav_cost 17 demand 106
(120,121) serv_cost 578 trav_cost 15 demand 563
(120,140) serv_cost 687 trav_cost 19 demand 668
(122,141) serv_cost 328 trav_cost 22 demand 306
(123,124) serv_cost 53 trav_cost 20 demand 33
(123,142) serv_cost 657 trav_cost 22 demand 635
(124,125) serv_cost 430 trav_cost 24 demand 406
(125,144) serv_cost 222 trav_cost 18 demand 204
(125,126) serv_cost 71 trav_cost 14 demand 57
(127,146) serv_cost 349 trav_cost 15 demand 334
(128,162) serv_cost 578 trav_cost 36 demand 542
(129,130) serv_cost 589 trav_cost 37 demand 552
(129,163) serv_cost 176 trav_cost 33 demand 143
(130,163) serv_cost 481 trav_cost 52 demand 429
(130,165) serv_cost 648 trav_cost 43 demand 605
(131,147) serv_cost 446 trav_cost 15 demand 431
(132,133) serv_cost 351 trav_cost 18 demand 333
(133,134) serv_cost 378 trav_cost 22 demand 356
(135,136) serv_cost 334 trav_cost 26 demand 308
(135,150) serv_cost 468 trav_cost 24 demand 444
(137,151) serv_cost 473 trav_cost 13 demand 460
(138,152) serv_cost 462 trav_cost 19 demand 443
(139,140) serv_cost 184 trav_cost 21 demand 163
(141,142) serv_cost 518 trav_cost 23 demand 495
(142,143) serv_cost 283 trav_cost 15 demand 268
(143,144) serv_cost 399 trav_cost 24 demand 375
(144,159) serv_cost 551 trav_cost 19 demand 532
(145,160) serv_cost 669 trav_cost 25 demand 644
(146,161) serv_cost 306 trav_cost 25 demand 281
(147,166) serv_cost 681 trav_cost 17 demand 664
(148,149) serv_cost 401 trav_cost 22 demand 379
(148,167) serv_cost 153 trav_cost 17 demand 136
(149,168) serv_cost 581 trav_cost 15 demand 566
(150,151) serv_cost 331 trav_cost 40 demand 291
(151,172) serv_cost 453 trav_cost 23 demand 430
(152,186) serv_cost 651 trav_cost 38 demand 613
(154,155) serv_cost 244 trav_cost 21 demand 223
(154,174) serv_cost 549 trav_cost 19 demand 530
(155,156) serv_cost 582 trav_cost 16 demand 566
(156,157) serv_cost 231 trav_cost 21 demand 210
(157,177) serv_cost 284 trav_cost 24 demand 260
(158,159) serv_cost 161 trav_cost 19 demand 142
(160,194) serv_cost 258 trav_cost 32 demand 226
(161,195) serv_cost 334 trav_cost 34 demand 300
(161,162) serv_cost 461 trav_cost 42 demand 419
(163,164) serv_cost 336 trav_cost 22 demand 314
(164,165) serv_cost 623 trav_cost 17 demand 606
(164,199) serv_cost 417 trav_cost 37 demand 380
(165,200) serv_cost 555 trav_cost 35 demand 520
(165,166) serv_cost 534 trav_cost 38 demand 496
(166,179) serv_cost 449 trav_cost 21 demand 428
(166,167) serv_cost 318 trav_cost 20 demand 298
(168,169) serv_cost 449 trav_cost 18 demand 431
(168,181) serv_cost 299 trav_cost 22 demand 277
(171,172) serv_cost 478 trav_cost 19 demand 459
(172,185) serv_cost 205 trav_cost 17 demand 188
(173,187) serv_cost 749 trav_cost 22 demand 727
(173,188) serv_cost 622 trav_cost 26 demand 596
(175,176) serv_cost 314 trav_cost 20 demand 294
(176,177) serv_cost 704 trav_cost 20 demand 684
(177,178) serv_cost 260 trav_cost 19 demand 241
(177,191) serv_cost 435 trav_cost 17 demand 418
(179,202) serv_cost 401 trav_cost 19 demand 382
(181,182) serv_cost 330 trav_cost 16 demand 314
(182,205) serv_cost 633 trav_cost 17 demand 616
(182,183) serv_cost 597 trav_cost 22 demand 575
(183,184) serv_cost 492 trav_cost 21 demand 471
(184,185) serv_cost 311 trav_cost 16 demand 295
(185,208) serv_cost 212 trav_cost 18 demand 194
(186,209) serv_cost 529 trav_cost 16 demand 513
(187,188) serv_cost 220 trav_cost 22 demand 198
(189,190) serv_cost 540 trav_cost 26 demand 514
(190,212) serv_cost 699 trav_cost 18 demand 681
(195,215) serv_cost 669 trav_cost 19 demand 650
(196,21) serv_cost 315 trav_cost 25 demand 290
(197,217) serv_cost 651 trav_cost 16 demand 635
(198,218) serv_cost 324 trav_cost 23 demand 301
(199,200) serv_cost 141 trav_cost 19 demand 122
(200,219) serv_cost 530 trav_cost 16 demand 514
(201,202) serv_cost 235 trav_cost 14 demand 221
(201,242) serv_cost 487 trav_cost 36 demand 451
(203,221) serv_cost 529 trav_cost 17 demand 512
(205,206) serv_cost 304 trav_cost 20 demand 284
(205,223) serv_cost 611 trav_cost 19 demand 592
(206,207) serv_cost 510 trav_cost 19 demand 491
(207,208) serv_cost 251 trav_cost 19 demand 232
(208,225) serv_cost 185 trav_cost 18 demand 167
(209,226) serv_cost 300 trav_cost 20 demand 280
(211,228) serv_cost 463 trav_cost 20 demand 443
(213,231) serv_cost 457 trav_cost 17 demand 440
(214,232) serv_cost 225 trav_cost 15 demand 210
(215,216) serv_cost 464 trav_cost 38 demand 426
(218,239) serv_cost 546 trav_cost 16 demand 530
(219,241) serv_cost 510 trav_cost 17 demand 493
(220,243) serv_cost 339 trav_cost 20 demand 319
(220,221) serv_cost 147 trav_cost 16 demand 131
(221,222) serv_cost 317 trav_cost 21 demand 296
(223,246) serv_cost 610 trav_cost 23 demand 587
(224,247) serv_cost 279 trav_cost 18 demand 261
(225,249) serv_cost 342 trav_cost 25 demand 317
(226,262) serv_cost 244 trav_cost 41 demand 203
(227,228) serv_cost 251 trav_cost 18 demand 233
(228,229) serv_cost 415 trav_cost 16 demand 399
(232,233) serv_cost 585 trav_cost 19 demand 566
(233,234) serv_cost 294 trav_cost 16 demand 278
(233,251) serv_cost 678 trav_cost 19 demand 659
(234,252) serv_cost 315 trav_cost 21 demand 294
(235,236) serv_cost 104 trav_cost 17 demand 87
(235,253) serv_cost 496 trav_cost 14 demand 482
(236,237) serv_cost 346 trav_cost 38 demand 308
(236,254) serv_cost 364 trav_cost 17 demand 347
(237,238) serv_cost 658 trav_cost 21 demand 637
(237,255) serv_cost 292 trav_cost 17 demand 275
(239,257) serv_cost 304 trav_cost 18 demand 286
(240,241) serv_cost 324 trav_cost 15 demand 309
(241,278) serv_cost 418 trav_cost 43 demand 375
(243,281) serv_cost 293 trav_cost 49 demand 244
(243,279) serv_cost 676 trav_cost 40 demand 636
(244,245) serv_cost 550 trav_cost 16 demand 534
(245,258) serv_cost 286 trav_cost 14 demand 272
(246,259) serv_cost 187 trav_cost 13 demand 174
(246,247) serv_cost 423 trav_cost 21 demand 402
(247,248) serv_cost 161 trav_cost 17 demand 144
(247,260) serv_cost 339 trav_cost 24 demand 315
(248,249) serv_cost 541 trav_cost 18 demand 523
(249,285) serv_cost 152 trav_cost 36 demand 116
(251,269) serv_cost 127 trav_cost 26 demand 101
(252,253) serv_cost 482 trav_cost 19 demand 463
(252,270) serv_cost 352 trav_cost 17 demand 335
(253,271) serv_cost 224 trav_cost 22 demand 202
(254,272) serv_cost 159 trav_cost 23 demand 136
(255,274) serv_cost 179 trav_cost 16 demand 163
(257,276) serv_cost 418 trav_cost 20 demand 398
(258,259) serv_cost 186 trav_cost 19 demand 167
(259,260) serv_cost 560 trav_cost 23 demand 537
(259,282) serv_cost 635 trav_cost 27 demand 608
(260,283) serv_cost 519 trav_cost 15 demand 504
(261,285) serv_cost 384 trav_cost 28 demand 356
(262,286) serv_cost 256 trav_cost 22 demand 234
(264,288) serv_cost 526 trav_cost 19 demand 507
(265,307) serv_cost 273 trav_cost 39 demand 234
(267,268) serv_cost 506 trav_cost 19 demand 487
(267,309) serv_cost 151 trav_cost 43 demand 108
(268,269) serv_cost 693 trav_cost 20 demand 673
(268,310) serv_cost 312 trav_cost 38 demand 274
(269,270) serv_cost 228 trav_cost 20 demand 208
(269,311) serv_cost 472 trav_cost 33 demand 439
(271,272) serv_cost 541 trav_cost 26 demand 515
(272,290) serv_cost 200 trav_cost 21 demand 179
(273,274) serv_cost 394 trav_cost 17 demand 377
(273,291) serv_cost 352 trav_cost 17 demand 335
(274,292) serv_cost 140 trav_cost 24 demand 116
(274,291) serv_cost 309 trav_cost 31 demand 278
(277,278) serv_cost 208 trav_cost 23 demand 185
(279,297) serv_cost 472 trav_cost 19 demand 453
(280,281) serv_cost 428 trav_cost 22 demand 406
(281,299) serv_cost 499 trav_cost 23 demand 476
(281,300) serv_cost 186 trav_cost 28 demand 158
(282,283) serv_cost 677 trav_cost 22 demand 655
(283,284) serv_cost 715 trav_cost 21 demand 694
(284,302) serv_cost 630 trav_cost 18 demand 612
(284,285) serv_cost 153 trav_cost 15 demand 138
(286,304) serv_cost 526 trav_cost 19 demand 507
(286,287) serv_cost 473 trav_cost 16 demand 457
(287,288) serv_cost 384 trav_cost 24 demand 360
(287,305) serv_cost 381 trav_cost 19 demand 362
(288,306) serv_cost 339 trav_cost 19 demand 320
(290,314) serv_cost 662 trav_cost 15 demand 647
(291,314) serv_cost 268 trav_cost 27 demand 241
(292,316) serv_cost 78 trav_cost 15 demand 63
(293,317) serv_cost 472 trav_cost 22 demand 450
(293,294) serv_cost 563 trav_cost 16 demand 547
(294,295) serv_cost 566 trav_cost 43 demand 523
(296,320) serv_cost 524 trav_cost 25 demand 499
(296,322) serv_cost 435 trav_cost 28 demand 407
(298,323) serv_cost 435 trav_cost 14 demand 421
(298,299) serv_cost 162 trav_cost 15 demand 147
(299,300) serv_cost 404 trav_cost 20 demand 384
(300,325) serv_cost 306 trav_cost 17 demand 289
(301,302) serv_cost 561 trav_cost 20 demand 541
(302,327) serv_cost 455 trav_cost 15 demand 440
(303,328) serv_cost 417 trav_cost 19 demand 398
(304,305) serv_cost 409 trav_cost 13 demand 396
(304,329) serv_cost 417 trav_cost 22 demand 395
(305,306) serv_cost 108 trav_cost 19 demand 89
(305,330) serv_cost 310 trav_cost 20 demand 290
(306,330) serv_cost 708 trav_cost 23 demand 685
(306,307) serv_cost 471 trav_cost 21 demand 450
(307,332) serv_cost 399 trav_cost 19 demand 380
(307,308) serv_cost 618 trav_cost 17 demand 601
(308,333) serv_cost 424 trav_cost 22 demand 402
(309,352) serv_cost 203 trav_cost 32 demand 171
(309,310) serv_cost 573 trav_cost 20 demand 553
(311,312) serv_cost 296 trav_cost 16 demand 280
(314,336) serv_cost 430 trav_cost 18 demand 412
(314,315) serv_cost 146 trav_cost 19 demand 127
(315,316) serv_cost 710 trav_cost 19 demand 691
(315,357) serv_cost 180 trav_cost 37 demand 143
(316,337) serv_cost 246 trav_cost 18 demand 228
(317,318) serv_cost 76 trav_cost 25 demand 51
(319,320) serv_cost 315 trav_cost 20 demand 295
(320,321) serv_cost 464 trav_cost 23 demand 441
(320,340) serv_cost 726 trav_cost 20 demand 706
(321,322) serv_cost 675 trav_cost 15 demand 660
(322,342) serv_cost 198 trav_cost 18 demand 180
(323,343) serv_cost 533 trav_cost 25 demand 508
(324,325) serv_cost 76 trav_cost 21 demand 55
(325,345) serv_cost 251 trav_cost 24 demand 227
(326,345) serv_cost 416 trav_cost 30 demand 386
(326,327) serv_cost 693 trav_cost 18 demand 675
(327,328) serv_cost 412 trav_cost 20 demand 392
(327,368) serv_cost 246 trav_cost 43 demand 203
(328,369) serv_cost 398 trav_cost 33 demand 365
(329,330) serv_cost 134 trav_cost 25 demand 109
(330,331) serv_cost 176 trav_cost 19 demand 157
(330,347) serv_cost 381 trav_cost 28 demand 353
(330,348) serv_cost 573 trav_cost 21 demand 552
(332,333) serv_cost 196 trav_cost 19 demand 177
(333,351) serv_cost 251 trav_cost 18 demand 233
(334,354) serv_cost 451 trav_cost 24 demand 427
(334,335) serv_cost 45 trav_cost 20 demand 25
(335,355) serv_cost 393 trav_cost 17 demand 376
(339,360) serv_cost 768 trav_cost 23 demand 745
(340,361) serv_cost 396 trav_cost 17 demand 379
(340,341) serv_cost 544 trav_cost 19 demand 525
(341,362) serv_cost 545 trav_cost 16 demand 529
(341,342) serv_cost 505 trav_cost 23 demand 482
(343,363) serv_cost 573 trav_cost 23 demand 550
(344,345) serv_cost 416 trav_cost 14 demand 402
(346,367) serv_cost 313 trav_cost 20 demand 293
(347,348) serv_cost 369 trav_cost 14 demand 355
(349,350) serv_cost 608 trav_cost 19 demand 589
(350,351) serv_cost 447 trav_cost 17 demand 430
(352,353) serv_cost 353 trav_cost 19 demand 334
(353,354) serv_cost 434 trav_cost 36 demand 398
(354,355) serv_cost 501 trav_cost 22 demand 479
(355,356) serv_cost 132 trav_cost 17 demand 115
(357,358) serv_cost 510 trav_cost 16 demand 494
(358,359) serv_cost 429 trav_cost 36 demand 393
(360,361) serv_cost 322 trav_cost 19 demand 303
(361,362) serv_cost 397 trav_cost 26 demand 371
(362,363) serv_cost 515 trav_cost 13 demand 502
(363,364) serv_cost 599 trav_cost 22 demand 577
(364,365) serv_cost 320 trav_cost 16 demand 304
(365,366) serv_cost 160 trav_cost 23 demand 137
(366,367) serv_cost 567 trav_cost 20 demand 547
LIST_REQ_ARCS :
(1,216) serv_cost 84 trav_cost 22 demand 62
(1,162) serv_cost 257 trav_cost 37 demand 220
(1,195) serv_cost 387 trav_cost 37 demand 350
(3,2) serv_cost 154 trav_cost 12 demand 142
(3,4) serv_cost 319 trav_cost 20 demand 299
(4,3) serv_cost 376 trav_cost 20 demand 356
(7,26) serv_cost 168 trav_cost 19 demand 149
(8,7) serv_cost 363 trav_cost 19 demand 344
(10,30) serv_cost 307 trav_cost 18 demand 289
(11,12) serv_cost 185 trav_cost 20 demand 165
(11,31) serv_cost 297 trav_cost 20 demand 277
(12,33) serv_cost 314 trav_cost 30 demand 284
(12,11) serv_cost 30 trav_cost 20 demand 10
(12,13) serv_cost 46 trav_cost 21 demand 25
(13,12) serv_cost 251 trav_cost 21 demand 230
(14,15) serv_cost 119 trav_cost 19 demand 100
(15,16) serv_cost 83 trav_cost 17 demand 66
(15,14) serv_cost 48 trav_cost 19 demand 29
(16,15) serv_cost 310 trav_cost 17 demand 293
(18,37) serv_cost 245 trav_cost 17 demand 228
(19,20) serv_cost 360 trav_cost 33 demand 327
(19,38) serv_cost 310 trav_cost 23 demand 287
(20,19) serv_cost 293 trav_cost 33 demand 260
(23,4) serv_cost 218 trav_cost 17 demand 201
(25,26) serv_cost 325 trav_cost 34 demand 291
(25,45) serv_cost 109 trav_cost 20 demand 89
(25,6) serv_cost 392 trav_cost 17 demand 375
(26,25) serv_cost 389 trav_cost 34 demand 355
(26,47) serv_cost 73 trav_cost 18 demand 55
(27,26) serv_cost 195 trav_cost 18 demand 177
(30,10) serv_cost 203 trav_cost 18 demand 185
(31,52) serv_cost 306 trav_cost 22 demand 284
(32,53) serv_cost 192 trav_cost 26 demand 166
(33,34) serv_cost 318 trav_cost 22 demand 296
(33,12) serv_cost 108 trav_cost 30 demand 78
(33,13) serv_cost 110 trav_cost 22 demand 88
(34,55) serv_cost 411 trav_cost 24 demand 387
(35,16) serv_cost 96 trav_cost 20 demand 76
(38,19) serv_cost 143 trav_cost 23 demand 120
(38,39) serv_cost 252 trav_cost 42 demand 210
(39,62) serv_cost 303 trav_cost 19 demand 284
(39,38) serv_cost 313 trav_cost 42 demand 271
(42,43) serv_cost 386 trav_cost 20 demand 366
(43,65) serv_cost 374 trav_cost 24 demand 350
(43,42) serv_cost 413 trav_cost 20 demand 393
(43,44) serv_cost 64 trav_cost 16 demand 48
(43,23) serv_cost 374 trav_cost 18 demand 356
(44,43) serv_cost 340 trav_cost 16 demand 324
(44,45) serv_cost 303 trav_cost 17 demand 286
(46,86) serv_cost 210 trav_cost 37 demand 173
(47,26) serv_cost 63 trav_cost 18 demand 45
(49,70) serv_cost 345 trav_cost 25 demand 320
(51,31) serv_cost 336 trav_cost 26 demand 310
(52,53) serv_cost 159 trav_cost 16 demand 143
(53,32) serv_cost 213 trav_cost 26 demand 187
(53,73) serv_cost 33 trav_cost 16 demand 17
(53,54) serv_cost 52 trav_cost 21 demand 31
(54,53) serv_cost 409 trav_cost 21 demand 388
(55,56) serv_cost 242 trav_cost 22 demand 220
(55,33) serv_cost 265 trav_cost 26 demand 239
(56,55) serv_cost 102 trav_cost 22 demand 80
(58,59) serv_cost 423 trav_cost 26 demand 397
(60,61) serv_cost 207 trav_cost 19 demand 188
(61,60) serv_cost 271 trav_cost 19 demand 252
(61,78) serv_cost 167 trav_cost 25 demand 142
(61,38) serv_cost 94 trav_cost 19 demand 75
(62,103) serv_cost 159 trav_cost 37 demand 122
(62,39) serv_cost 108 trav_cost 19 demand 89
(64,63) serv_cost 239 trav_cost 22 demand 217
(65,43) serv_cost 342 trav_cost 24 demand 318
(66,67) serv_cost 357 trav_cost 19 demand 338
(67,85) serv_cost 104 trav_cost 16 demand 88
(68,47) serv_cost 44 trav_cost 13 demand 31
(69,48) serv_cost 58 trav_cost 16 demand 42
(70,89) serv_cost 345 trav_cost 14 demand 331
(70,69) serv_cost 359 trav_cost 20 demand 339
(73,74) serv_cost 391 trav_cost 21 demand 370
(73,53) serv_cost 188 trav_cost 16 demand 172
(73,93) serv_cost 44 trav_cost 15 demand 29
(75,74) serv_cost 285 trav_cost 14 demand 271
(75,95) serv_cost 147 trav_cost 18 demand 129
(76,96) serv_cost 95 trav_cost 25 demand 70
(76,75) serv_cost 299 trav_cost 21 demand 278
(78,100) serv_cost 283 trav_cost 19 demand 264
(78,60) serv_cost 177 trav_cost 21 demand 156
(78,61) serv_cost 46 trav_cost 25 demand 21
(85,67) serv_cost 272 trav_cost 16 demand 256
(86,85) serv_cost 43 trav_cost 18 demand 25
(88,89) serv_cost 89 trav_cost 19 demand 70
(89,109) serv_cost 386 trav_cost 18 demand 368
(89,70) serv_cost 114 trav_cost 14 demand 100
(93,94) serv_cost 69 trav_cost 23 demand 46
(94,93) serv_cost 201 trav_cost 23 demand 178
(95,75) serv_cost 409 trav_cost 18 demand 391
(96,76) serv_cost 423 trav_cost 25 demand 398
(97,112) serv_cost 362 trav_cost 18 demand 344
(97,98) serv_cost 79 trav_cost 19 demand 60
(97,77) serv_cost 343 trav_cost 20 demand 323
(98,113) serv_cost 245 trav_cost 17 demand 228
(99,114) serv_cost 146 trav_cost 17 demand 129
(99,59) serv_cost 365 trav_cost 41 demand 324
(99,78) serv_cost 413 trav_cost 29 demand 384
(100,99) serv_cost 225 trav_cost 18 demand 207
(100,101) serv_cost 370 trav_cost 17 demand 353
(101,100) serv_cost 49 trav_cost 17 demand 32
(102,103) serv_cost 36 trav_cost 16 demand 20
(103,102) serv_cost 309 trav_cost 16 demand 293
(103,62) serv_cost 66 trav_cost 37 demand 29
(104,120) serv_cost 293 trav_cost 21 demand 272
(104,105) serv_cost 386 trav_cost 19 demand 367
(105,104) serv_cost 223 trav_cost 19 demand 204
(106,107) serv_cost 306 trav_cost 22 demand 284
(107,106) serv_cost 279 trav_cost 22 demand 257
(108,107) serv_cost 56 trav_cost 21 demand 35
(109,110) serv_cost 385 trav_cost 36 demand 349
(109,127) serv_cost 301 trav_cost 23 demand 278
(110,109) serv_cost 142 trav_cost 36 demand 106
(112,97) serv_cost 74 trav_cost 18 demand 56
(112,131) serv_cost 237 trav_cost 23 demand 214
(113,132) serv_cost 106 trav_cost 18 demand 88
(113,133) serv_cost 179 trav_cost 26 demand 153
(114,99) serv_cost 218 trav_cost 17 demand 201
(114,133) serv_cost 32 trav_cost 20 demand 12
(118,138) serv_cost 214 trav_cost 19 demand 195
(119,120) serv_cost 379 trav_cost 21 demand 358
(120,104) serv_cost 338 trav_cost 21 demand 317
(121,122) serv_cost 213 trav_cost 24 demand 189
(122,121) serv_cost 122 trav_cost 24 demand 98
(122,123) serv_cost 413 trav_cost 13 demand 400
(123,122) serv_cost 39 trav_cost 13 demand 26
(123,107) serv_cost 38 trav_cost 16 demand 22
(124,143) serv_cost 390 trav_cost 14 demand 376
(127,128) serv_cost 193 trav_cost 44 demand 149
(128,110) serv_cost 66 trav_cost 21 demand 45
(128,127) serv_cost 214 trav_cost 44 demand 170
(130,131) serv_cost 382 trav_cost 40 demand 342
(131,112) serv_cost 383 trav_cost 23 demand 360
(131,130) serv_cost 366 trav_cost 40 demand 326
(131,132) serv_cost 325 trav_cost 19 demand 306
(132,113) serv_cost 83 trav_cost 18 demand 65
(132,148) serv_cost 338 trav_cost 22 demand 316
(133,149) serv_cost 46 trav_cost 18 demand 28
(134,169) serv_cost 282 trav_cost 41 demand 241
(135,134) serv_cost 76 trav_cost 18 demand 58
(136,137) serv_cost 272 trav_cost 14 demand 258
(137,136) serv_cost 85 trav_cost 14 demand 71
(138,118) serv_cost 291 trav_cost 19 demand 272
(140,154) serv_cost 420 trav_cost 21 demand 399
(141,156) serv_cost 206 trav_cost 20 demand 186
(145,146) serv_cost 147 trav_cost 37 demand 110
(147,148) serv_cost 180 trav_cost 17 demand 163
(149,133) serv_cost 397 trav_cost 18 demand 379
(150,170) serv_cost 371 trav_cost 15 demand 356
(153,152) serv_cost 204 trav_cost 17 demand 187
(153,173) serv_cost 365 trav_cost 21 demand 344
(154,140) serv_cost 232 trav_cost 21 demand 211
(155,121) serv_cost 93 trav_cost 34 demand 59
(156,176) serv_cost 41 trav_cost 17 demand 24
(158,177) serv_cost 61 trav_cost 28 demand 33
(158,157) serv_cost 339 trav_cost 18 demand 321
(158,143) serv_cost 307 trav_cost 22 demand 285
(160,161) serv_cost 239 trav_cost 37 demand 202
(161,160) serv_cost 252 trav_cost 37 demand 215
(163,198) serv_cost 348 trav_cost 38 demand 310
(169,170) serv_cost 182 trav_cost 22 demand 160
(170,171) serv_cost 218 trav_cost 17 demand 201
(170,150) serv_cost 249 trav_cost 15 demand 234
(170,183) serv_cost 308 trav_cost 24 demand 284
(173,152) serv_cost 144 trav_cost 24 demand 120
(173,186) serv_cost 424 trav_cost 30 demand 394
(174,175) serv_cost 71 trav_cost 19 demand 52
(175,155) serv_cost 399 trav_cost 18 demand 381
(175,174) serv_cost 120 trav_cost 19 demand 101
(176,156) serv_cost 272 trav_cost 17 demand 255
(177,158) serv_cost 83 trav_cost 28 demand 55
(178,158) serv_cost 210 trav_cost 17 demand 193
(179,180) serv_cost 342 trav_cost 17 demand 325
(180,168) serv_cost 159 trav_cost 35 demand 124
(180,202) serv_cost 365 trav_cost 24 demand 341
(180,179) serv_cost 265 trav_cost 17 demand 248
(180,181) serv_cost 299 trav_cost 22 demand 277
(181,204) serv_cost 199 trav_cost 20 demand 179
(182,169) serv_cost 318 trav_cost 18 demand 300
(183,170) serv_cost 165 trav_cost 24 demand 141
(184,171) serv_cost 259 trav_cost 19 demand 240
(184,207) serv_cost 343 trav_cost 15 demand 328
(186,187) serv_cost 120 trav_cost 16 demand 104
(186,173) serv_cost 291 trav_cost 30 demand 261
(187,186) serv_cost 63 trav_cost 16 demand 47
(188,211) serv_cost 210 trav_cost 24 demand 186
(188,189) serv_cost 241 trav_cost 14 demand 227
(192,191) serv_cost 356 trav_cost 16 demand 340
(194,195) serv_cost 92 trav_cost 33 demand 59
(195,1) serv_cost 167 trav_cost 37 demand 130
(195,194) serv_cost 335 trav_cost 33 demand 302
(199,198) serv_cost 232 trav_cost 17 demand 215
(200,201) serv_cost 381 trav_cost 21 demand 360
(201,200) serv_cost 81 trav_cost 21 demand 60
(202,220) serv_cost 411 trav_cost 16 demand 395
(202,203) serv_cost 144 trav_cost 19 demand 125
(202,180) serv_cost 232 trav_cost 24 demand 208
(203,204) serv_cost 47 trav_cost 20 demand 27
(204,181) serv_cost 47 trav_cost 20 demand 27
(204,222) serv_cost 92 trav_cost 14 demand 78
(205,204) serv_cost 46 trav_cost 17 demand 29
(206,183) serv_cost 234 trav_cost 19 demand 215
(207,184) serv_cost 340 trav_cost 15 demand 325
(210,209) serv_cost 193 trav_cost 21 demand 172
(210,187) serv_cost 386 trav_cost 21 demand 365
(210,227) serv_cost 33 trav_cost 18 demand 15
(211,188) serv_cost 281 trav_cost 24 demand 257
(212,211) serv_cost 435 trav_cost 37 demand 398
(213,212) serv_cost 201 trav_cost 19 demand 182
(215,236) serv_cost 90 trav_cost 19 demand 71
(216,1) serv_cost 51 trav_cost 22 demand 29
(216,237) serv_cost 82 trav_cost 22 demand 60
(216,217) serv_cost 327 trav_cost 17 demand 310
(217,216) serv_cost 238 trav_cost 17 demand 221
(217,1) serv_cost 396 trav_cost 25 demand 371
(217,238) serv_cost 371 trav_cost 19 demand 352
(218,219) serv_cost 435 trav_cost 39 demand 396
(220,202) serv_cost 62 trav_cost 16 demand 46
(221,244) serv_cost 203 trav_cost 26 demand 177
(222,245) serv_cost 148 trav_cost 26 demand 122
(223,224) serv_cost 252 trav_cost 24 demand 228
(223,222) serv_cost 356 trav_cost 15 demand 341
(224,225) serv_cost 271 trav_cost 35 demand 236
(224,206) serv_cost 263 trav_cost 15 demand 248
(224,223) serv_cost 209 trav_cost 24 demand 185
(225,224) serv_cost 265 trav_cost 35 demand 230
(226,227) serv_cost 197 trav_cost 24 demand 173
(227,226) serv_cost 201 trav_cost 24 demand 177
(228,264) serv_cost 291 trav_cost 36 demand 255
(229,265) serv_cost 238 trav_cost 43 demand 195
(229,230) serv_cost 86 trav_cost 18 demand 68
(230,266) serv_cost 340 trav_cost 37 demand 303
(230,212) serv_cost 274 trav_cost 20 demand 254
(230,231) serv_cost 281 trav_cost 22 demand 259
(231,230) serv_cost 416 trav_cost 22 demand 394
(232,250) serv_cost 350 trav_cost 24 demand 326
(234,194) serv_cost 237 trav_cost 39 demand 198
(234,235) serv_cost 50 trav_cost 19 demand 31
(236,215) serv_cost 249 trav_cost 19 demand 230
(238,217) serv_cost 112 trav_cost 19 demand 93
(240,239) serv_cost 402 trav_cost 19 demand 383
(241,242) serv_cost 369 trav_cost 17 demand 352
(242,241) serv_cost 236 trav_cost 17 demand 219
(242,243) serv_cost 171 trav_cost 26 demand 145
(243,242) serv_cost 316 trav_cost 26 demand 290
(244,221) serv_cost 113 trav_cost 26 demand 87
(245,246) serv_cost 196 trav_cost 24 demand 172
(246,245) serv_cost 154 trav_cost 24 demand 130
(247,261) serv_cost 207 trav_cost 25 demand 182
(248,261) serv_cost 333 trav_cost 21 demand 312
(250,232) serv_cost 271 trav_cost 24 demand 247
(250,251) serv_cost 61 trav_cost 25 demand 36
(251,250) serv_cost 133 trav_cost 25 demand 108
(251,252) serv_cost 204 trav_cost 14 demand 190
(252,251) serv_cost 84 trav_cost 14 demand 70
(253,254) serv_cost 60 trav_cost 24 demand 36
(254,253) serv_cost 246 trav_cost 24 demand 222
(256,257) serv_cost 100 trav_cost 22 demand 78
(257,256) serv_cost 220 trav_cost 22 demand 198
(261,247) serv_cost 266 trav_cost 25 demand 241
(262,263) serv_cost 100 trav_cost 25 demand 75
(263,227) serv_cost 254 trav_cost 39 demand 215
(263,262) serv_cost 400 trav_cost 25 demand 375
(263,287) serv_cost 267 trav_cost 15 demand 252
(264,265) serv_cost 324 trav_cost 20 demand 304
(264,263) serv_cost 94 trav_cost 16 demand 78
(265,229) serv_cost 287 trav_cost 43 demand 244
(266,265) serv_cost 234 trav_cost 20 demand 214
(270,271) serv_cost 44 trav_cost 18 demand 26
(272,273) serv_cost 291 trav_cost 16 demand 275
(275,276) serv_cost 309 trav_cost 20 demand 289
(275,293) serv_cost 102 trav_cost 18 demand 84
(276,256) serv_cost 309 trav_cost 27 demand 282
(277,240) serv_cost 63 trav_cost 41 demand 22
(277,276) serv_cost 240 trav_cost 17 demand 223
(278,296) serv_cost 327 trav_cost 27 demand 300
(278,295) serv_cost 348 trav_cost 16 demand 332
(279,280) serv_cost 298 trav_cost 15 demand 283
(279,296) serv_cost 216 trav_cost 31 demand 185
(280,298) serv_cost 424 trav_cost 24 demand 400
(280,279) serv_cost 211 trav_cost 15 demand 196
(281,258) serv_cost 58 trav_cost 20 demand 38
(281,282) serv_cost 383 trav_cost 20 demand 363
(282,281) serv_cost 372 trav_cost 20 demand 352
(284,261) serv_cost 406 trav_cost 21 demand 385
(285,303) serv_cost 191 trav_cost 20 demand 171
(287,263) serv_cost 340 trav_cost 15 demand 325
(287,264) serv_cost 396 trav_cost 28 demand 368
(287,304) serv_cost 38 trav_cost 27 demand 11
(289,312) serv_cost 87 trav_cost 19 demand 68
(289,270) serv_cost 153 trav_cost 18 demand 135
(290,289) serv_cost 180 trav_cost 36 demand 144
(293,275) serv_cost 123 trav_cost 18 demand 105
(294,276) serv_cost 193 trav_cost 16 demand 177
(294,318) serv_cost 311 trav_cost 19 demand 292
(295,278) serv_cost 52 trav_cost 16 demand 36
(296,278) serv_cost 144 trav_cost 27 demand 117
(297,322) serv_cost 54 trav_cost 21 demand 33
(298,280) serv_cost 99 trav_cost 24 demand 75
(298,297) serv_cost 140 trav_cost 21 demand 119
(298,279) serv_cost 47 trav_cost 29 demand 18
(299,324) serv_cost 130 trav_cost 16 demand 114
(300,326) serv_cost 208 trav_cost 29 demand 179
(300,301) serv_cost 345 trav_cost 19 demand 326
(300,282) serv_cost 195 trav_cost 17 demand 178
(301,283) serv_cost 183 trav_cost 20 demand 163
(301,300) serv_cost 232 trav_cost 19 demand 213
(301,326) serv_cost 222 trav_cost 24 demand 198
(302,303) serv_cost 124 trav_cost 16 demand 108
(303,285) serv_cost 195 trav_cost 20 demand 175
(303,302) serv_cost 248 trav_cost 16 demand 232
(304,287) serv_cost 39 trav_cost 27 demand 12
(306,331) serv_cost 284 trav_cost 19 demand 265
(308,266) serv_cost 52 trav_cost 40 demand 12
(310,353) serv_cost 149 trav_cost 35 demand 114
(310,311) serv_cost 388 trav_cost 21 demand 367
(312,313) serv_cost 84 trav_cost 19 demand 65
(312,334) serv_cost 144 trav_cost 17 demand 127
(313,314) serv_cost 41 trav_cost 15 demand 26
(315,291) serv_cost 177 trav_cost 13 demand 164
(318,319) serv_cost 191 trav_cost 15 demand 176
(319,318) serv_cost 114 trav_cost 15 demand 99
(320,295) serv_cost 46 trav_cost 25 demand 21
(322,323) serv_cost 80 trav_cost 21 demand 59
(323,324) serv_cost 206 trav_cost 18 demand 188
(324,323) serv_cost 108 trav_cost 18 demand 90
(324,298) serv_cost 369 trav_cost 20 demand 349
(324,299) serv_cost 193 trav_cost 16 demand 177
(324,343) serv_cost 289 trav_cost 30 demand 259
(325,326) serv_cost 215 trav_cost 19 demand 196
(326,346) serv_cost 303 trav_cost 19 demand 284
(329,347) serv_cost 361 trav_cost 15 demand 346
(331,306) serv_cost 95 trav_cost 19 demand 76
(331,332) serv_cost 350 trav_cost 18 demand 332
(331,349) serv_cost 253 trav_cost 24 demand 229
(332,350) serv_cost 74 trav_cost 19 demand 55
(334,312) serv_cost 200 trav_cost 17 demand 183
(335,336) serv_cost 50 trav_cost 19 demand 31
(335,313) serv_cost 290 trav_cost 23 demand 267
(336,356) serv_cost 76 trav_cost 22 demand 54
(336,335) serv_cost 131 trav_cost 19 demand 112
(337,358) serv_cost 141 trav_cost 22 demand 119
(338,337) serv_cost 406 trav_cost 33 demand 373
(338,359) serv_cost 211 trav_cost 18 demand 193
(339,319) serv_cost 29 trav_cost 18 demand 11
(340,339) serv_cost 306 trav_cost 14 demand 292
(341,321) serv_cost 267 trav_cost 20 demand 247
(342,363) serv_cost 197 trav_cost 18 demand 179
(343,364) serv_cost 404 trav_cost 16 demand 388
(344,324) serv_cost 110 trav_cost 19 demand 91
(344,365) serv_cost 209 trav_cost 23 demand 186
(345,366) serv_cost 67 trav_cost 18 demand 49
(346,345) serv_cost 269 trav_cost 23 demand 246
(346,326) serv_cost 55 trav_cost 19 demand 36
(347,329) serv_cost 113 trav_cost 15 demand 98
(348,349) serv_cost 109 trav_cost 23 demand 86
(349,348) serv_cost 148 trav_cost 23 demand 125
(356,357) serv_cost 45 trav_cost 24 demand 21
(357,356) serv_cost 72 trav_cost 24 demand 48
(359,338) serv_cost 125 trav_cost 18 demand 107
(363,342) serv_cost 199 trav_cost 18 demand 181
(364,343) serv_cost 114 trav_cost 16 demand 98
(365,344) serv_cost 383 trav_cost 23 demand 360
(365,345) serv_cost 366 trav_cost 25 demand 341
(367,368) serv_cost 244 trav_cost 20 demand 224
(368,369) serv_cost 287 trav_cost 13 demand 274
(368,367) serv_cost 34 trav_cost 20 demand 14
(369,368) serv_cost 214 trav_cost 13 demand 201
LIST_NOREQ_ARCS :
(2,3) cost 12
(7,8) cost 19
(10,29) cost 31
(21,22) cost 37
(22,21) cost 37
(28,49) cost 18
(29,10) cost 31
(33,55) cost 26
(37,18) cost 17
(40,41) cost 33
(41,40) cost 33
(49,28) cost 18
(50,51) cost 19
(51,50) cost 19
(67,66) cost 19
(87,88) cost 18
(88,87) cost 18
(89,90) cost 18
(100,78) cost 19
(107,123) cost 16
(110,128) cost 21
(113,114) cost 22
(132,131) cost 19
(139,153) cost 16
(142,157) cost 16
(143,124) cost 14
(144,145) cost 15
(145,144) cost 15
(146,145) cost 37
(152,173) cost 24
(153,154) cost 21
(153,139) cost 16
(154,153) cost 21
(157,158) cost 18
(162,1) cost 37
(168,167) cost 21
(170,169) cost 22
(171,184) cost 19
(173,153) cost 21
(178,192) cost 19
(187,210) cost 21
(189,188) cost 14
(192,178) cost 19
(193,194) cost 22
(194,193) cost 22
(211,210) cost 14
(211,212) cost 37
(213,214) cost 20
(214,213) cost 20
(231,232) cost 21
(232,231) cost 21
(237,256) cost 29
(244,243) cost 17
(250,268) cost 18
(256,237) cost 29
(266,267) cost 14
(267,266) cost 14
(270,289) cost 18
(276,277) cost 17
(279,278) cost 37
(308,309) cost 22
(309,308) cost 22
(321,341) cost 20
(338,339) cost 26
(339,338) cost 26
(359,360) cost 18
(360,359) cost 18
DEPOT : 1
LOBO : 1
